⚡央视,#genre#
CCTV-1,http://[2409:8087:3869:8021:1001::e5]:6610/PLTV/88888910/224/3221225642/index.m3u8
CCTV-1,http://[2409:8087:3869:8021:1001::e5]:6610/PLTV/88888888/224/3221225501/2/index.m3u8
CCTV-1,http://[2409:8087:3869:8021:1001::e5]:6610/PLTV/88888888/224/3221225618/2/index.m3u8
CCTV-1,http://[2409:8087:3869:8021:1001::e5]:6610/PLTV/88888888/224/3221225630/2/index.m3u8
CCTV-1,http://[2409:8087:3869:8021:1001::e5]:6610/PLTV/88888888/224/3221225642/2/index.m3u8
CCTV-1,http://[2409:8087:3869:8021:1001::e5]:6610/PLTV/88888888/224/3221225762/2/index.m3u8
CCTV-1,http://[2409:8087:3869:8021:1001::e5]:6610/PLTV/88888888/224/3221225918/2/index.m3u8
CCTV-2,http://[2409:8087:3869:8021:1001::e5]:6610/PLTV/88888888/224/3221225500/2/index.m3u8
CCTV-2,http://[2409:8087:3869:8021:1001::e5]:6610/PLTV/88888888/224/3221225619/2/index.m3u8
CCTV-2,http://[2409:8087:3869:8021:1001::e5]:6610/PLTV/88888888/224/3221225643/2/index.m3u8
CCTV-3,http://[2409:8087:3869:8021:1001::e5]:6610/PLTV/88888888/224/3221225634/2/index.m3u8
CCTV-3,http://[2409:8087:3869:8021:1001::e5]:6610/PLTV/88888888/224/3221225647/2/index.m3u8
CCTV-4,http://[2409:8087:3869:8021:1001::e5]:6610/PLTV/88888888/224/3221225621/2/index.m3u8
CCTV-5,http://[2409:8087:3869:8021:1001::e5]:6610/PLTV/88888888/224/3221225633/2/index.m3u8
CCTV-5,http://[2409:8087:3869:8021:1001::e5]:6610/PLTV/88888888/224/3221225751/2/index.m3u8
CCTV-5,http://[2409:8087:3869:8021:1001::e5]:6610/PLTV/88888888/224/3221225752/2/index.m3u8
CCTV-5,http://[2409:8087:3869:8021:1001::e5]:6610/PLTV/88888888/224/3221225753/2/index.m3u8
CCTV-5,http://[2409:8087:3869:8021:1001::e5]:6610/PLTV/88888888/224/3221225754/2/index.m3u8
CCTV-5,http://[2409:8087:3869:8021:1001::e5]:6610/PLTV/88888888/224/3221225755/2/index.m3u8
CCTV-5,http://[2409:8087:3869:8021:1001::e5]:6610/PLTV/88888888/224/3221225756/2/index.m3u8
CCTV-5,https://pull-l3-cny.douyincdn.com/live/e98227c16857b6fb43bfd9a17cea43bb.m3u8
CCTV-5,http://39.134.24.161/dbiptv.sn.chinamobile.com/PLTV/88888890/224/3221226395/index.m3u8?
CCTV-5,http://39.134.24.162/dbiptv.sn.chinamobile.com/PLTV/88888890/224/3221226395/index.m3u8?
CCTV-5,http://159.75.85.63:828/shijiebei/sjb.php?id=3007a
CCTV-5,http://111.29.9.37:6610/000000001000/1000000005000025222/index.m3u8?stbId=3&livemode=1&IASHttpSessionId=OTT2197120221119175523009763&channel-id=ystenlive&Contentid=1000000005000025222
CCTV-5,http://111.29.9.42:6610/000000001000/1000000005000025222/index.m3u8?stbId=3&livemode=1&IASHttpSessionId=OTT2197120221119175523009763&channel-id=ystenlive&Contentid=1000000005000025222
CCTV-5,http://39.134.32.102:6610/270000001111/1110000305/index.m3u8?IASHttpSessionId=OTT
CCTV-5,http://hwrr.jx.chinamobile.com:8080/PLTV/88888888/224/3221226259/index.m3u8?fmt=ts2hls
CCTV-5,http://117.169.121.162:6610/PLTV/88888910/224/3221225633/index.m3u8
CCTV-5,http://39.134.32.102:6610/270000001111/1110000305/index.m3u8?IASHttpSessionId=OTT
CCTV-5,http://hwrr.jx.chinamobile.com:8080/PLTV/88888888/224/3221226259/index.m3u8?fmt=ts2hls
CCTV-5,http://117.169.121.162:6610/PLTV/88888910/224/3221225633/index.m3u8
CCTV-5+,http://[2409:8087:3869:8021:1001::e5]:6610/PLTV/88888888/224/3221225649/2/index.m3u8
CCTV-5+,http://[2409:8087:3869:8021:1001::e5]:6610/PLTV/88888888/224/3221225706/2/index.m3u8
CCTV-6,http://[2409:8087:3869:8021:1001::e5]:6610/PLTV/88888888/224/3221225632/2/index.m3u8
CCTV-6,http://[2409:8087:3869:8021:1001::e5]:6610/PLTV/88888888/224/3221225650/2/index.m3u8
CCTV-7,http://[2409:8087:3869:8021:1001::e5]:6610/PLTV/88888888/224/3221225499/2/index.m3u8
CCTV-7,http://[2409:8087:3869:8021:1001::e5]:6610/PLTV/88888888/224/3221225624/2/index.m3u8
CCTV-7,http://[2409:8087:3869:8021:1001::e5]:6610/PLTV/88888888/224/3221225644/2/index.m3u8
CCTV-8,http://[2409:8087:3869:8021:1001::e5]:6610/PLTV/88888888/224/3221225631/2/index.m3u8
CCTV-8,http://[2409:8087:3869:8021:1001::e5]:6610/PLTV/88888888/224/3221225635/2/index.m3u8
CCTV-9,http://[2409:8087:3869:8021:1001::e5]:6610/PLTV/88888888/224/3221225626/2/index.m3u8
CCTV-9,http://[2409:8087:3869:8021:1001::e5]:6610/PLTV/88888888/224/3221225646/2/index.m3u8
CCTV-10,http://[2409:8087:3869:8021:1001::e5]:6610/PLTV/88888888/224/3221225496/2/index.m3u8
CCTV-10,http://[2409:8087:3869:8021:1001::e5]:6610/PLTV/88888888/224/3221225627/2/index.m3u8
CCTV-10,http://[2409:8087:3869:8021:1001::e5]:6610/PLTV/88888888/224/3221225636/2/index.m3u8
CCTV-11,http://[2409:8087:3869:8021:1001::e5]:6610/PLTV/88888888/224/3221225628/2/index.m3u8
CCTV-12,http://[2409:8087:3869:8021:1001::e5]:6610/PLTV/88888888/224/3221225495/2/index.m3u8
CCTV-12,http://[2409:8087:3869:8021:1001::e5]:6610/PLTV/88888888/224/3221225629/2/index.m3u8
CCTV-12,http://[2409:8087:3869:8021:1001::e5]:6610/PLTV/88888888/224/3221225637/2/index.m3u8
CCTV-13,http://[2409:8087:3869:8021:1001::e5]:6610/PLTV/88888888/224/3221225638/2/index.m3u8
CCTV-14,http://[2409:8087:3869:8021:1001::e5]:6610/PLTV/88888888/224/3221225494/2/index.m3u8
CCTV-14,http://[2409:8087:3869:8021:1001::e5]:6610/PLTV/88888888/224/3221225639/2/index.m3u8
CCTV-14,http://[2409:8087:3869:8021:1001::e5]:6610/PLTV/88888888/224/3221225640/2/index.m3u8
CCTV-15,http://[2409:8087:3869:8021:1001::e5]:6610/PLTV/88888888/224/3221225641/2/index.m3u8
CCTV-17,http://[2409:8087:3869:8021:1001::e5]:6610/PLTV/88888888/224/3221225907/2/index.m3u8
CCTV-17,http://[2409:8087:3869:8021:1001::e5]:6610/PLTV/88888888/224/3221225908/2/index.m3u8
CCTV-17,http://[2409:8087:3869:8021:1001::e5]:6610/PLTV/88888888/224/3221225909/2/index.m3u8
CETV-1,http://[2409:8087:3869:8021:1001::e5]:6610/PLTV/88888888/224/3221225917/2/index.m3u8
CETV-4,http://[2409:8087:3869:8021:1001::e5]:6610/PLTV/88888888/224/3221225937/2/index.m3u8
CETV-4,http://[2409:8087:3869:8021:1001::e5]:6610/PLTV/88888888/224/3221225969/2/index.m3u8
CNC中文,http://[2409:8087:3869:8021:1001::e5]:6610/PLTV/88888888/224/3221225694/2/index.m3u8
CNC英语,http://[2409:8087:3869:8021:1001::e5]:6610/PLTV/88888888/224/3221225693/2/index.m3u8
CGTN英语,http://[2409:8087:3869:8021:1001::e5]:6610/PLTV/88888888/224/3221225747/2/index.m3u8
CGTN记录,http://[2409:8087:3869:8021:1001::e5]:6610/PLTV/88888888/224/3221225645/2/index.m3u8

⚡卫视,#genre#
大湾区卫视,http://121.51.249.6/4403-tx.otvstream.otvcloud.com/otv/skcc/live/channel58/index.m3u8
大湾区卫视,http://39.134.67.108/PLTV/88888888/224/3221226020/1.m3u8
大湾区卫视,http://[2409:8087:3428:20:500::1009]:6610/PLTV/88888888/224/3221227214/index.m3u8?servicetype=1&IASHttpSessionId=RR423820220409134714119178
大湾区卫视,http://[2409:8087:3428:20:500::100f]:6610/PLTV/88888888/224/3221227214/index.m3u8?servicetype=1&IASHttpSessionId=RR423820220409134714119178
大湾区卫视,http://218.17.216.102:9901/tsfile/live/1007_1.m3u8
广东卫视,http://[2409:8087:3869:8021:1001::e5]:6610/PLTV/88888888/224/3221225597/2/index.m3u8
广东卫视,http://[2409:8087:3869:8021:1001::e5]:6610/PLTV/88888888/224/3221225701/2/index.m3u8
广东卫视,http://[2409:8087:3869:8021:1001::e5]:6610/PLTV/88888888/224/3221225742/2/index.m3u8
深圳卫视,http://[2409:8087:3869:8021:1001::e5]:6610/PLTV/88888888/224/3221225598/2/index.m3u8
深圳卫视,http://[2409:8087:3869:8021:1001::e5]:6610/PLTV/88888888/224/3221225700/2/index.m3u8
深圳卫视,http://[2409:8087:3869:8021:1001::e5]:6610/PLTV/88888888/224/3221225741/2/index.m3u8
北京卫视,http://[2409:8087:3869:8021:1001::e5]:6610/PLTV/88888888/224/3221225600/2/index.m3u8
北京卫视,http://[2409:8087:3869:8021:1001::e5]:6610/PLTV/88888888/224/3221225673/2/index.m3u8
北京卫视,http://[2409:8087:3869:8021:1001::e5]:6610/PLTV/88888888/224/3221225674/2/index.m3u8
天津卫视,http://[2409:8087:3869:8021:1001::e5]:6610/PLTV/88888888/224/3221225485/2/index.m3u8
天津卫视,http://[2409:8087:3869:8021:1001::e5]:6610/PLTV/88888888/224/3221225698/2/index.m3u8
天津卫视,http://[2409:8087:3869:8021:1001::e5]:6610/PLTV/88888888/224/3221225739/2/index.m3u8
江苏卫视,http://[2409:8087:3869:8021:1001::e5]:6610/PLTV/88888888/224/3221225488/2/index.m3u8
江苏卫视,http://[2409:8087:3869:8021:1001::e5]:6610/PLTV/88888888/224/3221225702/2/index.m3u8
江苏卫视,http://[2409:8087:3869:8021:1001::e5]:6610/PLTV/88888888/224/3221225743/2/index.m3u8
浙江卫视,http://[2409:8087:3869:8021:1001::e5]:6610/PLTV/88888888/224/3221225491/2/index.m3u8
浙江卫视,http://[2409:8087:3869:8021:1001::e5]:6610/PLTV/88888888/224/3221225703/2/index.m3u8
浙江卫视,http://[2409:8087:3869:8021:1001::e5]:6610/PLTV/88888888/224/3221225744/2/index.m3u8
东方卫视,http://[2409:8087:3869:8021:1001::e5]:6610/PLTV/88888888/224/3221225489/2/index.m3u8
东方卫视,http://[2409:8087:3869:8021:1001::e5]:6610/PLTV/88888888/224/3221225658/2/index.m3u8
东方卫视,http://[2409:8087:3869:8021:1001::e5]:6610/PLTV/88888888/224/3221225659/2/index.m3u8
江西卫视,http://[2409:8087:3869:8021:1001::e5]:6610/PLTV/88888888/224/3221225492/2/index.m3u8
江西卫视,http://[2409:8087:3869:8021:1001::e5]:6610/PLTV/88888888/224/3221225705/2/index.m3u8
江西卫视,http://[2409:8087:3869:8021:1001::e5]:6610/PLTV/88888888/224/3221225746/2/index.m3u8
江西新闻,http://[2409:8087:3869:8021:1001::e5]:6610/PLTV/88888888/224/3221225615/2/index.m3u8
东南卫视,http://[2409:8087:3869:8021:1001::e5]:6610/PLTV/88888888/224/3221225585/2/index.m3u8
东南卫视,http://[2409:8087:3869:8021:1001::e5]:6610/PLTV/88888888/224/3221225657/2/index.m3u8
安徽卫视,http://[2409:8087:3869:8021:1001::e5]:6610/PLTV/88888888/224/3221225691/2/index.m3u8
安徽卫视,http://[2409:8087:3869:8021:1001::e5]:6610/PLTV/88888888/224/3221225737/2/index.m3u8
广西卫视,http://[2409:8087:3869:8021:1001::e5]:6610/PLTV/88888888/224/3221225731/2/index.m3u8
湖南卫视,http://[2409:8087:3869:8021:1001::e5]:6610/PLTV/88888888/224/3221225490/2/index.m3u8
湖南卫视,http://[2409:8087:3869:8021:1001::e5]:6610/PLTV/88888888/224/3221225704/2/index.m3u8
湖南卫视,http://[2409:8087:3869:8021:1001::e5]:6610/PLTV/88888888/224/3221225745/2/index.m3u8
湖北卫视,http://[2409:8087:3869:8021:1001::e5]:6610/PLTV/88888888/224/3221225699/2/index.m3u8
湖北卫视,http://[2409:8087:3869:8021:1001::e5]:6610/PLTV/88888888/224/3221225740/2/index.m3u8
河北卫视,http://[2409:8087:3869:8021:1001::e5]:6610/PLTV/88888888/224/3221225610/2/index.m3u8
河北卫视,http://[2409:8087:3869:8021:1001::e5]:6610/PLTV/88888888/224/3221225732/2/index.m3u8
河南卫视,http://[2409:8087:3869:8021:1001::e5]:6610/PLTV/88888888/224/3221225611/2/index.m3u8
山东卫视,http://[2409:8087:3869:8021:1001::e5]:6610/PLTV/88888888/224/3221225484/2/index.m3u8
山东卫视,http://[2409:8087:3869:8021:1001::e5]:6610/PLTV/88888888/224/3221225697/2/index.m3u8
山东卫视,http://[2409:8087:3869:8021:1001::e5]:6610/PLTV/88888888/224/3221225738/2/index.m3u8
山西卫视,http://[2409:8087:3869:8021:1001::e5]:6610/PLTV/88888888/224/3221225730/2/index.m3u8
陕西卫视,http://[2409:8087:3869:8021:1001::e5]:6610/PLTV/88888888/224/3221225729/2/index.m3u8
海南卫视,http://[2409:8087:3869:8021:1001::e5]:6610/PLTV/88888888/224/3221225722/2/index.m3u8
西藏卫视,http://[2409:8087:3869:8021:1001::e5]:6610/PLTV/88888888/224/3221225723/2/index.m3u8
甘肃卫视,http://[2409:8087:3869:8021:1001::e5]:6610/PLTV/88888888/224/3221225724/2/index.m3u8
新疆卫视,http://[2409:8087:3869:8021:1001::e5]:6610/PLTV/88888888/224/3221225725/2/index.m3u8
宁夏卫视,http://[2409:8087:3869:8021:1001::e5]:6610/PLTV/88888888/224/3221225726/2/index.m3u8
青海卫视,http://[2409:8087:3869:8021:1001::e5]:6610/PLTV/88888888/224/3221225727/2/index.m3u8
贵州卫视,http://[2409:8087:3869:8021:1001::e5]:6610/PLTV/88888888/224/3221225483/2/index.m3u8
贵州卫视,http://[2409:8087:3869:8021:1001::e5]:6610/PLTV/88888888/224/3221225728/2/index.m3u8
重庆卫视,http://[2409:8087:3869:8021:1001::e5]:6610/PLTV/88888888/224/3221225612/2/index.m3u8
重庆卫视,http://[2409:8087:3869:8021:1001::e5]:6610/PLTV/88888888/224/3221225692/2/index.m3u8
重庆卫视,http://[2409:8087:3869:8021:1001::e5]:6610/PLTV/88888888/224/3221225734/2/index.m3u8
四川卫视,http://[2409:8087:3869:8021:1001::e5]:6610/PLTV/88888888/224/3221225487/2/index.m3u8
四川卫视,http://[2409:8087:5c0b:10:2::77]:6610/000000001000/1000000002000016825/1.m3u8
辽宁卫视,http://[2409:8087:3869:8021:1001::e5]:6610/PLTV/88888888/224/3221225601/2/index.m3u8
辽宁卫视,http://[2409:8087:3869:8021:1001::e5]:6610/PLTV/88888888/224/3221225696/2/index.m3u8
辽宁卫视,http://[2409:8087:3869:8021:1001::e5]:6610/PLTV/88888888/224/3221225735/2/index.m3u8
吉林卫视,http://[2409:8087:3869:8021:1001::e5]:6610/PLTV/88888888/224/3221225680/2/index.m3u8
黑龙江卫视,http://[2409:8087:3869:8021:1001::e5]:6610/PLTV/88888888/224/3221225586/2/index.m3u8
黑龙江卫视,http://[2409:8087:3869:8021:1001::e5]:6610/PLTV/88888888/224/3221225690/2/index.m3u8
黑龙江卫视,http://[2409:8087:3869:8021:1001::e5]:6610/PLTV/88888888/224/3221225736/2/index.m3u8

📻港台,#genre#
凤凰资讯,http://play-live.ifeng.com/live/06OLEEWQKN4.m3u8
凤凰资讯,https://play-live.ifeng.com/live/06OLEEWQKN4.m3u8
凤凰中文,http://play-live.ifeng.com/live/06OLEGEGM4G.m3u8
凤凰中文,http://playtv-live.ifeng.com/live/06OLEGEGM4G.m3u8
凤凰中文,http://playtv-live.ifeng.com/live/06OLEGEGM4G_tv1.m3u8
凤凰中文,http://playtv-live.ifeng.com/live/06OLEGEGM4G_tv2.m3u8
凤凰中文,http://playtv-live.ifeng.com:80/live/06OLEGEGM4G.m3u8
凤凰中文,http://playtv-live.ifeng.com:80/live/06OLEGEGM4G_tv1.m3u8
凤凰中文,http://playtv-live.ifeng.com:80/live/06OLEGEGM4G_tv2.m3u8
凤凰中文,https://playtv-live.ifeng.com/live/06OLEGEGM4G_tv1.m3u8
凤凰中文,https://playtv-live.ifeng.com/live/06OLEGEGM4G_tv2.m3u8
凤凰中文,https://playtv-live.ifeng.com/live/06OLEGEGM4G_tv1.m3u8 
凤凰中文,http://173.211.42.73:8278/phoenixtv_hd/playlist.m3u8
香港卫视,http://zhibo.hkstv.tv/livestream/mutfysrq/playlist.m3u8
香港卫视,https://zhibo.hkstv.tv/livestream/mutfysrq/playlist.m3u8
香港卫视,http://zhibo.hkstv.tv:80/livestream/mutfysrq.flv
香港卫视,http://zhibo.hkstv.tv/livestream/mutfysrq.flv
香港明珠,http://198.16.64.10:8278/pearl_twn/playlist.m3u8?tid=MC6C7041327570413275&ct=19226&tsum=681972baf66d69caf7cccc92a90e5aad
香港明珠,https://cdn.hklive.tv/xxxx/84/index.m3u8
香港明珠,http://118.31.113.130:82/gudou.php?id=1351_4500
香港明珠,http://120.84.96.78:808/hls/26/index.m3u8
香港文旅,https://myun-hw-s3.myun.tv/melj80jz/lxx27bol/1551285536499984128.m3u8
TVBS新闻,http://38.64.72.148/hls/modn/list/4006/chunklist0.m3u8
TVBS新闻,rtmp://59.124.75.138:1935/sat/tv551
TVBS新闻,http://198.16.64.10:8278/tvbs_n/playlist.m3u8
TVBS新闻,http://173.211.42.73:8278/tvbs_n/playlist.m3u8
TVBS新闻,rtmp://59.124.75.150/sat/tv551
TVBS新闻,rtmp://59.124.75.138/sat/tv551
TVBS新闻,http://38.64.72.148:80/hls/modn/list/4006/chunklist0.m3u8
TVBS新闻,http://38.64.72.148:80/hls/modn/list/4006/chunklist1.m3u8
民视新闻,http://38.64.72.148:80/hls/modn/list/4012/chunklist0.m3u8
民视新闻,rtmp://59.124.75.138/sat/tv051
民视新闻,rtmp://59.124.75.150/sat/tv051
民视新闻,rtmp://59.124.75.138:1935/sat/tv051
民视新闻,http://38.64.72.148:80/hls/modn/list/4012/chunklist0.m3u8
民视新闻,http://38.64.72.148:80/hls/modn/list/4012/chunklist1.m3u8
台视新闻,http://38.64.72.148:80/hls/modn/list/4013/chunklist0.m3u8
台视新闻,rtmp://59.124.75.150/sat/tv071
台视新闻,rtmp://59.124.75.138/sat/tv071
台视新闻,rtmp://59.124.75.138:1935/sat/tv071
台视新闻,http://38.64.72.148:80/hls/modn/list/4013/chunklist0.m3u8
台视新闻,http://38.64.72.148:80/hls/modn/list/4013/chunklist1.m3u8

⚽️体育,#genre#
咪咕1,http://[2409:8087:3428:20:500::1009]:6610/PLTV/88888888/224/3221227189/index.m3u8?servicetype=1&IASHttpSessionId=RR423820220409134714119178
咪咕1,http://[2409:8087:3428:20:500::100f]:6610/PLTV/88888888/224/3221227189/index.m3u8?servicetype=1&IASHttpSessionId=RR423820220409134714119178
咪咕2,http://[2409:8087:3428:20:500::1009]:6610/PLTV/88888888/224/3221227047/index.m3u8?servicetype=1&IASHttpSessionId=RR423820220409134714119178
咪咕2,http://[2409:8087:3428:20:500::100f]:6610/PLTV/88888888/224/3221227047/index.m3u8?servicetype=1&IASHttpSessionId=RR423820220409134714119178
咪咕3,http://[2409:8087:3428:20:500::1009]:6610/PLTV/88888888/224/3221227158/index.m3u8?servicetype=1&IASHttpSessionId=RR423820220409134714119178
咪咕3,http://[2409:8087:3428:20:500::100f]:6610/PLTV/88888888/224/3221227158/index.m3u8?servicetype=1&IASHttpSessionId=RR423820220409134714119178
咪咕3,http://[2409:8087:1a01:df::4077]/PLTV/88888888/224/3221225895/index.m3u8
咪咕4,http://[2409:8087:3428:20:500::1009]:6610/PLTV/88888888/224/3221227228/index.m3u8?servicetype=1&IASHttpSessionId=RR423820220409134714119178
咪咕4,http://[2409:8087:3428:20:500::1009]:6610/PLTV/88888888/224/3221227107/index.m3u8?servicetype=1&IASHttpSessionId=RR423820220409134714119178
咪咕4,http://[2409:8087:3428:20:500::100f]:6610/PLTV/88888888/224/3221227228/index.m3u8?servicetype=1&IASHttpSessionId=RR423820220409134714119178
咪咕4,http://[2409:8087:3428:20:500::100f]:6610/PLTV/88888888/224/3221227107/index.m3u8?servicetype=1&IASHttpSessionId=RR423820220409134714119178
新视觉,http://183.207.255.188/live/program/live/xsjhd/4000000/mnf.m3u8
新视觉,http://[2409:8087:6a01:1020::d]/cdnrrs.gz.chinamobile.com/PLTV/88888888/224/3221226237/1/index.m3u8
央视台球,http://[2409:8087:7001:20:2::3]:80/dbiptv.sn.chinamobile.com/PLTV/88888893/224/3221226956/index.m3u8
广东体育,http://113.117.74.17:808/hls/1/index.m3u8
广东体育,http://e59abdd420c65d43cc1550d493a88c71.v.smtcdns.net/4403-tx.otvstream.otvcloud.com/otv/skcc/live/channel34/2300.m3u8
广东体育,http://e59abdd420c65d43cc1550d493a88c71.v.smtcdns.net/4403-tx.otvstream.otvcloud.com/otv/skcc/live/channel34/2300.m3u8
广东体育,http://61.143.45.150:9901/tsfile/live/1001_1.m3u8
广东体育,http://121.33.239.242:9901/tsfile/live/1011_1.m3u8
广东体育,https://tytctv.gdtv.cn/live/gdty.m3u8?auth_key=1667124224-0-0-0d41e11b0cdc87047fc4184dda60fe20
广东体育,https://tytctv.gdtv.cn/live/gdty.m3u8?auth_key=1667124556-0-0-cd3ef42420265c0c9ae02532d7a3dfc9
山东体育,http://222.132.191.125:9901/tsfile/live/1005_1.m3u8
山东体育,http://119.164.216.162:9901/tsfile/live/1002_1.m3u8
山东体育,http://39.136.48.21:8089/PLTV/88888888/224/3221226075/index.m3u8
五星体育,http://112.25.48.69/live/program/live/ssty/4000000/mnf.m3u8
五星体育,http://112.25.48.11/live/program/live/ssty/4000000/mnf.m3u8
五星体育,http://112.132.214.218/liveplay-kk.rtxapp.com/live/program/live/ssty/4000000/mnf.m3u8
五星体育,http://shbu.live.bestvcdn.com.cn:8080/live/program/live/ssty/4000000/mnf.m3u8
五星体育,http://111.40.196.25/PLTV/88888888/224/3221225503/index.m3u8
足球频道,https://nmglive.imfc.cn/5n1r1c/182396.m3u8
风云足球,http://[2409:8087:7001:20:2::3]:80/dbiptv.sn.chinamobile.com/PLTV/88888893/224/3221226984/index.m3u8
风云足球,http://125.39.177.227/bkhlsliveali-cdn.ysp.cctv.cn/ysp/2012514203.m3u8
魅力足球,http://183.207.255.188/live/program/live/mlyyhd/4000000/mnf.m3u8
央视台球,http://[2409:8087:7001:20:2::3]:80/dbiptv.sn.chinamobile.com/PLTV/88888893/224/3221226956/index.m3u8
超级体育,http://[2409:8087:3869:8021:1001::e5]:6610/PLTV/88888888/224/3221225622/2/index.m3u8
超级体育,http://[2409:8087:3869:8021:1001::e5]:6610/PLTV/88888888/224/3221225648/2/index.m3u8
超级体育,http://[2409:8087:3869:8021:1001::e5]:6610/PLTV/88888888/224/3221225767/2/index.m3u8
超级体育,http://39.134.115.221:8080/PLTV/88888910/224/3221225622/index.m3u8?
超级体育,http://39.134.115.221:8080/PLTV/88888910/224/3221225648/index.m3u8?
超级体育,http://39.134.115.221:8080/PLTV/88888910/224/3221225767/index.m3u8?
超级体育,http://39.134.115.163:8080/PLTV/88888910/224/3221225622/index.m3u8
精品体育,http://[2409:8087:3869:8021:1001::e5]:6610/PLTV/88888888/224/3221225709/2/index.m3u8
精品体育,http://39.134.115.221:8080/PLTV/88888910/224/3221225709/index.m3u8?

🌊广东,#genre#
广东新闻,http://121.33.239.242:9901/tsfile/live/1010_1.m3u8
广东新闻,http://61.143.45.150:9901/tsfile/live/0019_1.m3u8
广东新闻,http://218.17.216.102:9901/tsfile/live/1002_1.m3u8
广东公共,http://218.17.216.102:9901/tsfile/live/1003_1.m3u8
广东珠江, http://121.33.239.242:9901/tsfile/live/1002_1.m3u8
广东珠江,http://218.17.216.102:9901/tsfile/live/1001_1.m3u8
广东文化,https://glive.grtn.cn/live/wenhua_test0203.m3u8?auth_key=1617289309-0-0-7b2730980c8860963374597c20ad3935?zguangd
广东文化,https://glive.grtn.cn/live/wenhua_test0203.m3u8?auth_key=1612881417-0-0-bc7ddba066481bc805fc1e800654e721?zguangd
广东文化,https://glive.grtn.cn/live/wenhua_test0203.m3u8
广州新闻,https://justsometime.gztv.com/sec/xinwen.m3u8?auth_key=1667030657-0-0-646a05a75a52492b9fe50bf4582f4f06
广州新闻,https://justsometime.gztv.com/sec/xinwen.m3u8?auth_key=1667117206-0-0-0d971a47164cfd07f66a14a4cb5d7ebd
广州综合,https://justsometime.gztv.com/sec/zhonghes.m3u8?auth_key=1667030816-0-0-cc16e80cfd86adcfa3fe14045f598289
广州综合,https://justsometime.gztv.com/sec/zhonghes.m3u8?auth_key=1667117168-0-0-868d0992c600ec1cb7e566e7d3e7141c

🌈4K区,#genre#
苏州4K,http://liveshowbak2.kan0512.com/ksz-norecord/csztv4k_4k.m3u8
李子柒4K,http://hls-ott-zhibo.wasu.tv/live/443/index.m3u8
CCTV-4K,http://liveop.cctv.cn/hls/4KHD/playlist.m3u8
CCTV-4K,http://[2409:8087:3869:8021:1001::e5]:6610/PLTV/88888888/224/3221225786/2/index.m3u8
CCTV-4K,http://liveop.cctv.cn/hls/4KHD/playlist.m3u8?zzhongd
欢笑剧场,http://183.207.255.188/live/program/live/hxjchd/4000000/mnf.m3u8 
欢笑剧场,http://111.20.33.70/PLTV/88888893/224/3221226582/index.m3u8  
欢笑剧场,http://112.17.40.218:80/PLTV/88888888/224/3221230739/1.m3u8

📡影视,#genre#
金鹰纪实,http://[2409:8087:3869:8021:1001::e5]:6610/PLTV/88888888/224/3221225595/2/index.m3u8
纪实科教,http://[2409:8087:3869:8021:1001::e5]:6610/PLTV/88888888/224/3221225675/2/index.m3u8
纪实科教,http://[2409:8087:3869:8021:1001::e5]:6610/PLTV/88888888/224/3221225676/2/index.m3u8
纪实人文,http://[2409:8087:3869:8021:1001::e5]:6610/PLTV/88888888/224/3221225609/2/index.m3u8
纪实人文,http://[2409:8087:3869:8021:1001::e5]:6610/PLTV/88888888/224/3221225654/2/index.m3u8
纪实人文,http://[2409:8087:3869:8021:1001::e5]:6610/PLTV/88888888/224/3221225655/2/index.m3u8
中华美食,http://[2409:8087:3869:8021:1001::e5]:6610/PLTV/88888888/224/3221225924/2/index.m3u8
精品记录,http://[2409:8087:3869:8021:1001::e5]:6610/PLTV/88888888/224/3221225710/2/index.m3u8
山东教育,http://[2409:8087:3869:8021:1001::e5]:6610/PLTV/88888888/224/3221225719/2/index.m3u8
军事评论,http://[2409:8087:3869:8021:1001::e5]:6610/PLTV/88888888/224/3221225757/2/index.m3u8
中国功夫,http://[2409:8087:3869:8021:1001::e5]:6610/PLTV/88888888/224/3221225660/2/index.m3u8
武博世界,http://[2409:8087:3869:8021:1001::e5]:6610/PLTV/88888888/224/3221225656/2/index.m3u8
武术世界,http://[2409:8087:3869:8021:1001::e5]:6610/PLTV/88888888/224/3221225508/2/index.m3u8
梨园频道,http://[2409:8087:3869:8021:1001::e5]:6610/PLTV/88888888/224/3221225581/2/index.m3u8
军旅剧场,http://[2409:8087:3869:8021:1001::e5]:6610/PLTV/88888888/224/3221225669/2/index.m3u8
古装剧场,http://[2409:8087:3869:8021:1001::e5]:6610/PLTV/88888888/224/3221225678/2/index.m3u8
金牌综艺,http://[2409:8087:3869:8021:1001::e5]:6610/PLTV/88888888/224/3221225711/2/index.m3u8
超级综艺,http://[2409:8087:3869:8021:1001::e5]:6610/PLTV/88888888/224/3221225620/2/index.m3u8
超级综艺,http://[2409:8087:3869:8021:1001::e5]:6610/PLTV/88888888/224/3221225768/2/index.m3u8
超级电影,http://[2409:8087:3869:8021:1001::e5]:6610/PLTV/88888888/224/3221225623/2/index.m3u8
超级电影,http://[2409:8087:3869:8021:1001::e5]:6610/PLTV/88888888/224/3221225766/2/index.m3u8
超级剧场,http://[2409:8087:3869:8021:1001::e5]:6610/PLTV/88888888/224/3221225625/2/index.m3u8
超级剧场,http://[2409:8087:3869:8021:1001::e5]:6610/PLTV/88888888/224/3221225765/2/index.m3u8
家庭剧场,http://[2409:8087:3869:8021:1001::e5]:6610/PLTV/88888888/224/3221225713/2/index.m3u8
精品大剧,http://[2409:8087:3869:8021:1001::e5]:6610/PLTV/88888888/224/3221225714/2/index.m3u8
哈哈炫动,http://[2409:8087:3869:8021:1001::e5]:6610/PLTV/88888888/224/3221225720/2/index.m3u8
金鹰卡通,http://[2409:8087:3869:8021:1001::e5]:6610/PLTV/88888888/224/3221225721/2/index.m3u8
黑莓动画,http://[2409:8087:3869:8021:1001::e5]:6610/PLTV/88888888/224/3221225672/2/index.m3u8
黑莓电影,http://[2409:8087:3869:8021:1001::e5]:6610/PLTV/88888888/224/3221225718/2/index.m3u8
黑莓电影,http://[2409:8087:3869:8021:1001::e5]:6610/PLTV/88888888/224/3221225764/2/index.m3u8
黑莓电影,http://[2409:8087:3869:8021:1001::e5]:6610/PLTV/88888888/224/3221225769/2/index.m3u8